handshakeTX/vcd_myTX.vcd
$date
     Oct 25, 2024       10:28:00
$end

$version
 SystemC 2.3.4-Accellera --- Dec  4 2023 14:09:46
$end

$timescale
     1 ps
$end

$scope module SystemC $end
$var wire    1  aaaaa  i_clock       $end
$var wire    1  aaaab  i_reset       $end
$var wire    1  aaaac  i_packetReady       $end
$var wire    1  aaaad  i_OnOff       $end
$var wire    1  aaaae  i_fifo_empty       $end
$var wire    8  aaaaf  i_fifo_dataOut [7:0]  $end
$var wire    1  aaaag  o_Req       $end
$var wire    1  aaaah  o_SoP       $end
$var wire    1  aaaai  o_fifo_pop       $end
$var wire   32  aaaaj  state [31:0]  $end
$var wire    9  aaaak  count [8:0]  $end
$var wire   32  aaaal  prev_state [31:0]  $end
$upscope $end
$enddefinitions  $end

$comment
All initial values are dumped below at time 1e-08 sec = 10000 timescale units.
$end

$dumpvars
0aaaaa
0aaaab
0aaaac
0aaaad
0aaaae
b0 aaaaf
0aaaag
0aaaah
0aaaai
b0 aaaaj
b0 aaaak
b0 aaaal
$end

#20000
1aaaaa

#30000
0aaaaa

#40000
1aaaaa

#50000
0aaaaa
1aaaab
1aaaae

#60000
1aaaaa

#70000
0aaaaa

#80000
1aaaaa

#90000
0aaaaa
0aaaab
0aaaae
b100 aaaaf

#100000
1aaaaa

#110000
0aaaaa

#120000
1aaaaa

#130000
0aaaaa
1aaaac

#140000
1aaaaa
b1 aaaaj

#150000
0aaaaa
0aaaac
1aaaad

#160000
1aaaaa
b10 aaaaj
b110 aaaak
b1 aaaal

#170000
0aaaaa
0aaaad

#180000
1aaaaa
1aaaag
1aaaah
b11 aaaaj
b10 aaaal

#190000
0aaaaa

#200000
1aaaaa
0aaaag
0aaaah
b11 aaaal

#210000
0aaaaa

#220000
1aaaaa

#230000
0aaaaa

#240000
1aaaaa

#250000
0aaaaa

#260000
1aaaaa

#270000
0aaaaa

#280000
1aaaaa

#290000
0aaaaa
1aaaad
b1 aaaaf

#300000
1aaaaa
b100 aaaaj

#310000
0aaaaa

#320000
1aaaaa
1aaaag
1aaaai
b101 aaaak
b100 aaaal

#330000
0aaaaa

#340000
1aaaaa

#350000
0aaaaa

#360000
1aaaaa

#370000
0aaaaa
0aaaad

#380000
1aaaaa
b11 aaaaj

#390000
0aaaaa

#400000
1aaaaa
0aaaag
0aaaai
b11 aaaal

#410000
0aaaaa

#420000
1aaaaa

#430000
0aaaaa

#440000
1aaaaa

#450000
0aaaaa

#460000
1aaaaa

#470000
0aaaaa

#480000
1aaaaa

#490000
0aaaaa
1aaaad
b10 aaaaf

#500000
1aaaaa
b100 aaaaj

#510000
0aaaaa

#520000
1aaaaa
1aaaag
1aaaai
b100 aaaak
b100 aaaal

#530000
0aaaaa

#540000
1aaaaa

#550000
0aaaaa

#560000
1aaaaa

#570000
0aaaaa
0aaaad

#580000
1aaaaa
b11 aaaaj

#590000
0aaaaa

#600000
1aaaaa
0aaaag
0aaaai
b11 aaaal

#610000
0aaaaa

#620000
1aaaaa

#630000
0aaaaa

#640000
1aaaaa

#650000
0aaaaa

#660000
1aaaaa

#670000
0aaaaa

#680000
1aaaaa

#690000
0aaaaa
1aaaad
b11 aaaaf

#700000
1aaaaa
b100 aaaaj

#710000
0aaaaa

#720000
1aaaaa
1aaaag
1aaaai
b11 aaaak
b100 aaaal

#730000
0aaaaa

#740000
1aaaaa

#750000
0aaaaa

#760000
1aaaaa

#770000
0aaaaa
0aaaad

#780000
1aaaaa
b11 aaaaj

#790000
0aaaaa

#800000
1aaaaa
0aaaag
0aaaai
b11 aaaal

#810000
0aaaaa

#820000
1aaaaa

#830000
0aaaaa

#840000
1aaaaa

#850000
0aaaaa

#860000
1aaaaa

#870000
0aaaaa

#880000
1aaaaa

#890000
0aaaaa
1aaaad
b100 aaaaf

#900000
1aaaaa
b100 aaaaj

#910000
0aaaaa

#920000
1aaaaa
1aaaag
1aaaai
b10 aaaak
b100 aaaal

#930000
0aaaaa

#940000
1aaaaa

#950000
0aaaaa

#960000
1aaaaa

#970000
0aaaaa
0aaaad

#980000
1aaaaa
b11 aaaaj

#990000
0aaaaa

#1000000
1aaaaa
0aaaag
0aaaai
b11 aaaal

#1010000
0aaaaa

#1020000
1aaaaa

#1030000
0aaaaa

#1040000
1aaaaa

#1050000
0aaaaa

#1060000
1aaaaa

#1070000
0aaaaa

#1080000
1aaaaa

#1090000
0aaaaa
1aaaad
b101 aaaaf

#1100000
1aaaaa
b100 aaaaj

#1110000
0aaaaa

#1120000
1aaaaa
1aaaag
1aaaai
b1 aaaak
b100 aaaal

#1130000
0aaaaa

#1140000
1aaaaa

#1150000
0aaaaa

#1160000
1aaaaa

#1170000
0aaaaa
0aaaad

#1180000
1aaaaa
b11 aaaaj

#1190000
0aaaaa

#1200000
1aaaaa
0aaaag
0aaaai
b11 aaaal

#1210000
0aaaaa

#1220000
1aaaaa

#1230000
0aaaaa

#1240000
1aaaaa

#1250000
0aaaaa

#1260000
1aaaaa

#1270000
0aaaaa

#1280000
1aaaaa

#1290000
0aaaaa
1aaaad
b110 aaaaf

#1300000
1aaaaa
b100 aaaaj

#1310000
0aaaaa

#1320000
1aaaaa
1aaaag
1aaaai
b0 aaaak
b100 aaaal

#1330000
0aaaaa

#1340000
1aaaaa

#1350000
0aaaaa

#1360000
1aaaaa

#1370000
0aaaaa
1aaaac
0aaaad

#1380000
1aaaaa
b11 aaaaj

#1390000
0aaaaa

#1400000
1aaaaa
0aaaag
0aaaai
b0 aaaaj
b11 aaaal

#1410000
0aaaaa

#1420000
1aaaaa
b1 aaaaj
b0 aaaal

#1430000
0aaaaa

#1440000
1aaaaa
b1000 aaaak
b1 aaaal

#1450000
0aaaaa

#1460000
1aaaaa

#1470000
0aaaaa
0aaaac
1aaaad

#1480000
1aaaaa
b10 aaaaj

#1490000
0aaaaa

#1500000
1aaaaa
1aaaag
1aaaah
b10 aaaal

#1510000
0aaaaa

#1520000
1aaaaa

#1530000
0aaaaa

#1540000
1aaaaa

#1550000
0aaaaa

#1560000
1aaaaa

#1570000
0aaaaa

#1580000
1aaaaa

#1590000
0aaaaa
0aaaad

#1600000
1aaaaa
b11 aaaaj

#1610000
0aaaaa

#1620000
1aaaaa
0aaaag
0aaaah
b11 aaaal

#1630000
0aaaaa

#1640000
1aaaaa

#1650000
0aaaaa

#1660000
1aaaaa

#1670000
0aaaaa

#1680000
1aaaaa

#1690000
0aaaaa

#1700000
1aaaaa

#1710000
0aaaaa
1aaaad
b1 aaaaf

#1720000
1aaaaa
b100 aaaaj

#1730000
0aaaaa

#1740000
1aaaaa
1aaaag
1aaaai
b111 aaaak
b100 aaaal

#1750000
0aaaaa

#1760000
1aaaaa

#1770000
0aaaaa

#1780000
1aaaaa

#1790000
0aaaaa
0aaaad

#1800000
1aaaaa
b11 aaaaj

#1810000
0aaaaa

#1820000
1aaaaa
0aaaag
0aaaai
b11 aaaal

#1830000
0aaaaa

#1840000
1aaaaa

#1850000
0aaaaa

#1860000
1aaaaa

#1870000
0aaaaa

#1880000
1aaaaa

#1890000
0aaaaa

#1900000
1aaaaa

#1910000
0aaaaa
1aaaad
b10 aaaaf

#1920000
1aaaaa
b100 aaaaj

#1930000
0aaaaa

#1940000
1aaaaa
1aaaag
1aaaai
b110 aaaak
b100 aaaal

#1950000
0aaaaa

#1960000
1aaaaa

#1970000
0aaaaa

#1980000
1aaaaa

#1990000
0aaaaa
0aaaad

#2000000
1aaaaa
b11 aaaaj

#2010000
0aaaaa

#2020000
1aaaaa
0aaaag
0aaaai
b11 aaaal

#2030000
0aaaaa

#2040000
1aaaaa

#2050000
0aaaaa

#2060000
1aaaaa

#2070000
0aaaaa

#2080000
1aaaaa

#2090000
0aaaaa

#2100000
1aaaaa

#2110000
0aaaaa
1aaaad
b11 aaaaf

#2120000
1aaaaa
b100 aaaaj

#2130000
0aaaaa

#2140000
1aaaaa
1aaaag
1aaaai
b101 aaaak
b100 aaaal

#2150000
0aaaaa

#2160000
1aaaaa

#2170000
0aaaaa

#2180000
1aaaaa

#2190000
0aaaaa
0aaaad

#2200000
1aaaaa
b11 aaaaj

#2210000
0aaaaa

#2220000
1aaaaa
0aaaag
0aaaai
b11 aaaal

#2230000
0aaaaa

#2240000
1aaaaa

#2250000
0aaaaa

#2260000
1aaaaa

#2270000
0aaaaa

#2280000
1aaaaa

#2290000
0aaaaa

#2300000
1aaaaa

#2310000
0aaaaa
1aaaad
b100 aaaaf

#2320000
1aaaaa
b100 aaaaj

#2330000
0aaaaa

#2340000
1aaaaa
1aaaag
1aaaai
b100 aaaak
b100 aaaal

#2350000
0aaaaa

#2360000
1aaaaa

#2370000
0aaaaa

#2380000
1aaaaa

#2390000
0aaaaa
0aaaad

#2400000
1aaaaa
b11 aaaaj

#2410000
0aaaaa

#2420000
1aaaaa
0aaaag
0aaaai
b11 aaaal

#2430000
0aaaaa

#2440000
1aaaaa

#2450000
0aaaaa

#2460000
1aaaaa

#2470000
0aaaaa

#2480000
1aaaaa

#2490000
0aaaaa

#2500000
1aaaaa

#2510000
0aaaaa
1aaaad
b101 aaaaf

#2520000
1aaaaa
b100 aaaaj

#2530000
0aaaaa

#2540000
1aaaaa
1aaaag
1aaaai
b11 aaaak
b100 aaaal

#2550000
0aaaaa

#2560000
1aaaaa

#2570000
0aaaaa

#2580000
1aaaaa

#2590000
0aaaaa
0aaaad

#2600000
1aaaaa
b11 aaaaj

#2610000
0aaaaa

#2620000
1aaaaa
0aaaag
0aaaai
b11 aaaal

#2630000
0aaaaa

#2640000
1aaaaa

#2650000
0aaaaa

#2660000
1aaaaa

#2670000
0aaaaa

#2680000
1aaaaa

#2690000
0aaaaa

#2700000
1aaaaa

#2710000
0aaaaa
1aaaad
b110 aaaaf

#2720000
1aaaaa
b100 aaaaj

#2730000
0aaaaa

#2740000
1aaaaa
1aaaag
1aaaai
b10 aaaak
b100 aaaal

#2750000
0aaaaa

#2760000
1aaaaa

#2770000
0aaaaa

#2780000
1aaaaa

#2790000
0aaaaa
1aaaac
0aaaad

#2800000
1aaaaa
b11 aaaaj

#2810000
0aaaaa

#2820000
1aaaaa
0aaaag
0aaaai
b11 aaaal

#2830000
0aaaaa

#2840000
1aaaaa

#2850000
0aaaaa

#2860000
1aaaaa

#2870000
0aaaaa

#2880000
1aaaaa

#2890000
0aaaaa
0aaaac
1aaaad

#2900000
1aaaaa
b100 aaaaj

#2910000
0aaaaa

#2920000
1aaaaa
1aaaag
1aaaai
b1 aaaak
b100 aaaal

#2930000
0aaaaa

#2940000
1aaaaa

#2950000
0aaaaa

#2960000
1aaaaa

#2970000
0aaaaa

#2980000
1aaaaa

#2990000
0aaaaa

#3000000
1aaaaa

#3010000
0aaaaa
0aaaad

#3020000
1aaaaa
b11 aaaaj

#3030000
0aaaaa

#3040000
1aaaaa
0aaaag
0aaaai
b11 aaaal

#3050000
0aaaaa

#3060000
1aaaaa

#3070000
0aaaaa

#3080000
1aaaaa

#3090000
0aaaaa

#3100000
1aaaaa

#3110000
0aaaaa

#3120000
1aaaaa

#3130000
0aaaaa
1aaaad
b1 aaaaf

#3140000
1aaaaa
b100 aaaaj

#3150000
0aaaaa

#3160000
1aaaaa
1aaaag
1aaaai
b0 aaaak
b100 aaaal

#3170000
0aaaaa

#3180000
1aaaaa

#3190000
0aaaaa

#3200000
1aaaaa

#3210000
0aaaaa
0aaaad

#3220000
1aaaaa
b11 aaaaj

#3230000
0aaaaa

#3240000
1aaaaa
0aaaag
0aaaai
b0 aaaaj
b11 aaaal

#3250000
0aaaaa

#3260000
1aaaaa
b0 aaaal

#3270000
0aaaaa

#3280000
1aaaaa

#3290000
0aaaaa

#3300000
1aaaaa

#3310000
0aaaaa

#3320000
1aaaaa

#3330000
0aaaaa
1aaaad
b10 aaaaf

#3340000
1aaaaa

#3350000
0aaaaa

#3360000
1aaaaa

#3370000
0aaaaa

#3380000
1aaaaa

#3390000
0aaaaa

#3400000
1aaaaa

#3410000
0aaaaa
0aaaad

#3420000
1aaaaa

#3430000
0aaaaa

#3440000
1aaaaa

#3450000
0aaaaa

#3460000
1aaaaa

#3470000
0aaaaa

#3480000
1aaaaa

#3490000
0aaaaa

#3500000
1aaaaa

#3510000
0aaaaa

#3520000
1aaaaa

#3530000
0aaaaa
1aaaad
b11 aaaaf

#3540000
1aaaaa

#3550000
0aaaaa

#3560000
1aaaaa

#3570000
0aaaaa

#3580000
1aaaaa

#3590000
0aaaaa

#3600000
1aaaaa

#3610000
0aaaaa
0aaaad

#3620000
1aaaaa

#3630000
0aaaaa

#3640000
1aaaaa

#3650000
0aaaaa

#3660000
1aaaaa

#3670000
0aaaaa

#3680000
1aaaaa

#3690000
0aaaaa

#3700000
1aaaaa

#3710000
0aaaaa

#3720000
1aaaaa

#3730000
0aaaaa
1aaaad
b100 aaaaf

#3740000
1aaaaa

#3750000
0aaaaa

#3760000
1aaaaa

#3770000
0aaaaa

#3780000
1aaaaa

#3790000
0aaaaa

#3800000
1aaaaa

#3810000
0aaaaa
0aaaad

#3820000
1aaaaa

#3830000
0aaaaa

#3840000
1aaaaa

#3850000
0aaaaa

#3860000
1aaaaa

#3870000
0aaaaa

#3880000
1aaaaa

#3890000
0aaaaa

#3900000
1aaaaa

#3910000
0aaaaa

#3920000
1aaaaa

#3930000
0aaaaa
1aaaad
b101 aaaaf

#3940000
1aaaaa

#3950000
0aaaaa

#3960000
1aaaaa

#3970000
0aaaaa

#3980000
1aaaaa

#3990000
0aaaaa

#4000000
1aaaaa

#4010000
0aaaaa
0aaaad

#4020000
1aaaaa

#4030000
0aaaaa

#4040000
1aaaaa

#4050000
0aaaaa

#4060000
1aaaaa

#4070000
0aaaaa

#4080000
1aaaaa

#4090000
0aaaaa

#4100000
1aaaaa

#4110000
0aaaaa

#4120000
1aaaaa

#4130000
0aaaaa
1aaaad
b110 aaaaf

#4140000
1aaaaa

#4150000
0aaaaa

#4160000
1aaaaa

#4170000
0aaaaa

#4180000
1aaaaa

#4190000
0aaaaa

#4200000
1aaaaa

#4210000
0aaaaa
1aaaac
0aaaad

#4220000
1aaaaa
b1 aaaaj

#4230000
0aaaaa

#4240000
1aaaaa
b1000 aaaak
b1 aaaal

#4250000
0aaaaa

#4260000
1aaaaa

#4270000
0aaaaa

#4280000
1aaaaa

#4290000
0aaaaa

#4300000
1aaaaa

#4310000
0aaaaa
0aaaac
1aaaad

#4320000
1aaaaa
b10 aaaaj

#4330000
0aaaaa

#4340000
1aaaaa
1aaaag
1aaaah
b10 aaaal

#4350000
0aaaaa

#4360000
1aaaaa

#4370000
0aaaaa

#4380000
1aaaaa

#4390000
0aaaaa

#4400000
1aaaaa

#4410000
0aaaaa

#4420000
1aaaaa

#4430000
0aaaaa
0aaaad

#4440000
1aaaaa
b11 aaaaj

#4450000
0aaaaa

#4460000
1aaaaa
0aaaag
0aaaah
b11 aaaal

#4470000
0aaaaa

#4480000
1aaaaa

#4490000
0aaaaa

#4500000
1aaaaa

#4510000
0aaaaa

#4520000
1aaaaa

#4530000
0aaaaa

#4540000
1aaaaa

#4550000
0aaaaa
1aaaad
b1 aaaaf

#4560000
1aaaaa
b100 aaaaj

#4570000
0aaaaa

#4580000
1aaaaa
1aaaag
1aaaai
b111 aaaak
b100 aaaal

#4590000
0aaaaa

#4600000
1aaaaa

#4610000
0aaaaa

#4620000
1aaaaa

#4630000
0aaaaa
0aaaad

#4640000
1aaaaa
b11 aaaaj

#4650000
0aaaaa

#4660000
1aaaaa
0aaaag
0aaaai
b11 aaaal

#4670000
0aaaaa

#4680000
1aaaaa

#4690000
0aaaaa

#4700000
1aaaaa

#4710000
0aaaaa

#4720000
1aaaaa

#4730000
0aaaaa

#4740000
1aaaaa

#4750000
0aaaaa
1aaaad
b10 aaaaf

#4760000
1aaaaa
b100 aaaaj

#4770000
0aaaaa

#4780000
1aaaaa
1aaaag
1aaaai
b110 aaaak
b100 aaaal

#4790000
0aaaaa

#4800000
1aaaaa

#4810000
0aaaaa

#4820000
1aaaaa

#4830000
0aaaaa
0aaaad

#4840000
1aaaaa
b11 aaaaj

#4850000
0aaaaa

#4860000
1aaaaa
0aaaag
0aaaai
b11 aaaal

#4870000
0aaaaa

#4880000
1aaaaa

#4890000
0aaaaa

#4900000
1aaaaa

#4910000
0aaaaa

#4920000
1aaaaa

#4930000
0aaaaa

#4940000
1aaaaa

#4950000
0aaaaa
1aaaad
b11 aaaaf

#4960000
1aaaaa
b100 aaaaj

#4970000
0aaaaa

#4980000
1aaaaa
1aaaag
1aaaai
b101 aaaak
b100 aaaal

#4990000
0aaaaa

#5000000
1aaaaa

#5010000
0aaaaa

#5020000
1aaaaa

#5030000
0aaaaa
0aaaad

#5040000
1aaaaa
b11 aaaaj

#5050000
0aaaaa

#5060000
1aaaaa
0aaaag
0aaaai
b11 aaaal

#5070000
0aaaaa

#5080000
1aaaaa

#5090000
0aaaaa

#5100000
1aaaaa

#5110000
0aaaaa

#5120000
1aaaaa

#5130000
0aaaaa

#5140000
1aaaaa

#5150000
0aaaaa
1aaaad
b100 aaaaf

#5160000
1aaaaa
b100 aaaaj

#5170000
0aaaaa

#5180000
1aaaaa
1aaaag
1aaaai
b100 aaaak
b100 aaaal

#5190000
0aaaaa

#5200000
1aaaaa

#5210000
0aaaaa

#5220000
1aaaaa

#5230000
0aaaaa
0aaaad

#5240000
1aaaaa
b11 aaaaj

#5250000
0aaaaa

#5260000
1aaaaa
0aaaag
0aaaai
b11 aaaal

#5270000
0aaaaa

#5280000
1aaaaa

#5290000
0aaaaa

#5300000
1aaaaa

#5310000
0aaaaa

#5320000
1aaaaa

#5330000
0aaaaa

#5340000
1aaaaa

#5350000
0aaaaa
1aaaad
b101 aaaaf

#5360000
1aaaaa
b100 aaaaj

#5370000
0aaaaa

#5380000
1aaaaa
1aaaag
1aaaai
b11 aaaak
b100 aaaal

#5390000
0aaaaa

#5400000
1aaaaa

#5410000
0aaaaa

#5420000
1aaaaa

#5430000
0aaaaa
0aaaad

#5440000
1aaaaa
b11 aaaaj

#5450000
0aaaaa

#5460000
1aaaaa
0aaaag
0aaaai
b11 aaaal

#5470000
0aaaaa

#5480000
1aaaaa

#5490000
0aaaaa

#5500000
1aaaaa

#5510000
0aaaaa

#5520000
1aaaaa

#5530000
0aaaaa

#5540000
1aaaaa

#5550000
0aaaaa
1aaaad
b110 aaaaf

#5560000
1aaaaa
b100 aaaaj

#5570000
0aaaaa

#5580000
1aaaaa
1aaaag
1aaaai
b10 aaaak
b100 aaaal

#5590000
0aaaaa

#5600000
1aaaaa

#5610000
0aaaaa

#5620000
1aaaaa

#5630000
0aaaaa
0aaaad

#5640000
1aaaaa
b11 aaaaj

#5650000
0aaaaa

#5660000
1aaaaa
0aaaag
0aaaai
b11 aaaal

#5670000
0aaaaa

#5680000
1aaaaa

#5690000
0aaaaa

#5700000
1aaaaa

#5710000
0aaaaa

#5720000
1aaaaa

#5730000
0aaaaa

#5740000
1aaaaa

#5750000
0aaaaa
1aaaad
b111 aaaaf

#5760000
1aaaaa
b100 aaaaj

#5770000
0aaaaa

#5780000
1aaaaa
1aaaag
1aaaai
b1 aaaak
b100 aaaal

#5790000
0aaaaa

#5800000
1aaaaa

#5810000
0aaaaa

#5820000
1aaaaa

#5830000
0aaaaa
0aaaad

#5840000
1aaaaa
b11 aaaaj

#5850000
0aaaaa

#5860000
1aaaaa
0aaaag
0aaaai
b11 aaaal

#5870000
0aaaaa

#5880000
1aaaaa

#5890000
0aaaaa

#5900000
1aaaaa

#5910000
0aaaaa

#5920000
1aaaaa

#5930000
0aaaaa

#5940000
1aaaaa

#5950000
0aaaaa
1aaaad
b1000 aaaaf

#5960000
1aaaaa
b100 aaaaj

#5970000
0aaaaa

#5980000
1aaaaa
1aaaag
1aaaai
b0 aaaak
b100 aaaal

#5990000
0aaaaa

#6000000
1aaaaa

#6010000
0aaaaa

#6020000
1aaaaa

#6030000
0aaaaa
1aaaac
0aaaad

#6040000
1aaaaa
b11 aaaaj

#6050000
0aaaaa

#6060000
1aaaaa
0aaaag
0aaaai
b0 aaaaj
b11 aaaal

#6070000
0aaaaa

#6080000
1aaaaa
b1 aaaaj
b0 aaaal

#6090000
0aaaaa

#6100000
1aaaaa
b1010 aaaak
b1 aaaal

#6110000
0aaaaa

#6120000
1aaaaa

#6130000
0aaaaa
0aaaac
1aaaad

#6140000
1aaaaa
b10 aaaaj

#6150000
0aaaaa

#6160000
1aaaaa
1aaaag
1aaaah
b10 aaaal

#6170000
0aaaaa

#6180000
1aaaaa

#6190000
0aaaaa

#6200000
1aaaaa

#6210000
0aaaaa

#6220000
1aaaaa

#6230000
0aaaaa

#6240000
1aaaaa

#6250000
0aaaaa
0aaaad

#6260000
1aaaaa
b11 aaaaj

#6270000
0aaaaa

#6280000
1aaaaa
0aaaag
0aaaah
b11 aaaal

#6290000
0aaaaa

#6300000
1aaaaa

#6310000
0aaaaa

#6320000
1aaaaa

#6330000
0aaaaa

#6340000
1aaaaa

#6350000
0aaaaa

#6360000
1aaaaa

#6370000
0aaaaa
1aaaad
b1 aaaaf

#6380000
1aaaaa
b100 aaaaj

#6390000
0aaaaa

#6400000
1aaaaa
1aaaag
1aaaai
b1001 aaaak
b100 aaaal

#6410000
0aaaaa

#6420000
1aaaaa

#6430000
0aaaaa

#6440000
1aaaaa

#6450000
0aaaaa

#6460000
1aaaaa

#6470000
0aaaaa

#6480000
1aaaaa

#6490000
0aaaaa

#6500000
1aaaaa

#6510000
0aaaaa

#6520000
1aaaaa

#6530000
0aaaaa
0aaaad

#6540000
1aaaaa
b11 aaaaj

#6550000
0aaaaa

#6560000
1aaaaa
0aaaag
0aaaai
b11 aaaal

#6570000
0aaaaa

#6580000
1aaaaa

#6590000
0aaaaa

#6600000
1aaaaa

#6610000
0aaaaa

#6620000
1aaaaa

#6630000
0aaaaa

#6640000
1aaaaa

#6650000
0aaaaa
1aaaad
b10 aaaaf

#6660000
1aaaaa
b100 aaaaj

#6670000
0aaaaa

#6680000
1aaaaa
1aaaag
1aaaai
b1000 aaaak
b100 aaaal

#6690000
0aaaaa

#6700000
1aaaaa

#6710000
0aaaaa

#6720000
1aaaaa

#6730000
0aaaaa

#6740000
1aaaaa

#6750000
0aaaaa

#6760000
1aaaaa

#6770000
0aaaaa

#6780000
1aaaaa

#6790000
0aaaaa

#6800000
1aaaaa

#6810000
0aaaaa
0aaaad

#6820000
1aaaaa
b11 aaaaj

#6830000
0aaaaa

#6840000
1aaaaa
0aaaag
0aaaai
b11 aaaal

#6850000
0aaaaa

#6860000
1aaaaa

#6870000
0aaaaa

#6880000
1aaaaa

#6890000
0aaaaa

#6900000
1aaaaa

#6910000
0aaaaa

#6920000
1aaaaa

#6930000
0aaaaa
1aaaad
b11 aaaaf

#6940000
1aaaaa
b100 aaaaj

#6950000
0aaaaa

#6960000
1aaaaa
1aaaag
1aaaai
b111 aaaak
b100 aaaal

#6970000
0aaaaa

#6980000
1aaaaa

#6990000
0aaaaa

#7000000
1aaaaa

#7010000
0aaaaa

#7020000
1aaaaa

#7030000
0aaaaa

#7040000
1aaaaa

#7050000
0aaaaa

#7060000
1aaaaa

#7070000
0aaaaa

#7080000
1aaaaa

#7090000
0aaaaa
0aaaad

#7100000
1aaaaa
b11 aaaaj

#7110000
0aaaaa

#7120000
1aaaaa
0aaaag
0aaaai
b11 aaaal

#7130000
0aaaaa

#7140000
1aaaaa

#7150000
0aaaaa

#7160000
1aaaaa

#7170000
0aaaaa

#7180000
1aaaaa

#7190000
0aaaaa

#7200000
1aaaaa

#7210000
0aaaaa
1aaaad
b100 aaaaf

#7220000
1aaaaa
b100 aaaaj

#7230000
0aaaaa

#7240000
1aaaaa
1aaaag
1aaaai
b110 aaaak
b100 aaaal

#7250000
0aaaaa

#7260000
1aaaaa

#7270000
0aaaaa

#7280000
1aaaaa

#7290000
0aaaaa

#7300000
1aaaaa

#7310000
0aaaaa

#7320000
1aaaaa

#7330000
0aaaaa

#7340000
1aaaaa

#7350000
0aaaaa

#7360000
1aaaaa

#7370000
0aaaaa
0aaaad

#7380000
1aaaaa
b11 aaaaj

#7390000
0aaaaa

#7400000
1aaaaa
0aaaag
0aaaai
b11 aaaal

#7410000
0aaaaa

#7420000
1aaaaa

#7430000
0aaaaa

#7440000
1aaaaa

#7450000
0aaaaa

#7460000
1aaaaa

#7470000
0aaaaa

#7480000
1aaaaa

#7490000
0aaaaa
1aaaad
b101 aaaaf

#7500000
1aaaaa
b100 aaaaj

#7510000
0aaaaa

#7520000
1aaaaa
1aaaag
1aaaai
b101 aaaak
b100 aaaal

#7530000
0aaaaa

#7540000
1aaaaa

#7550000
0aaaaa

#7560000
1aaaaa

#7570000
0aaaaa

#7580000
1aaaaa

#7590000
0aaaaa

#7600000
1aaaaa

#7610000
0aaaaa

#7620000
1aaaaa

#7630000
0aaaaa

#7640000
1aaaaa

#7650000
0aaaaa
0aaaad
1aaaae

#7660000
1aaaaa
b11 aaaaj

#7670000
0aaaaa

#7680000
1aaaaa
0aaaag
0aaaai
b11 aaaal

